{
  "182": {
    "name": "gitlab-runner-test",
    "reason": "To verify and test Trusted GitLab Runners"
  },
  "339": {
    "name": "gitlab-trusted-runner",
    "reason": "Root/registration project for Trusted Runners"
  },
  "881": {
    "name": "repos/releng/buildkit",
    "reason": "WMF fork of BuildKit used to build container images in GitLab CI"
  },
  "9": {
    "name": "repos/releng/blubber",
    "reason": "Blubber is used by WMF projects to build container images in GitLab CI"
  },
  "319": {
    "name": "repos/releng/gitlab-cloud-runner",
    "reason": "Provisions cloud resources in Digital Ocean and its credentials need protection."
  },
  "865": {
    "name": "repos/releng/scap",
    "reason": "T321629: Scap needs access to the trusted runners to publish doc updates."
  },
  "943": {
    "name": "repos/releng/gitlab-terraform-images",
    "reason": "T322344: Publishes a version of GitLab upstream terraform-images that uses WMF base images."
  },
  "912": {
    "name": "repos/releng/reggie",
    "reason": "T323149: Reggie will be our caching registry for the deployment pipeline in GitLab CI."
  },
  "348": {
    "name": "repos/releng/jwt-authorizer",
    "reason": "Provides JWT based auth to just about any service including the production and gitlab-cloud-runner registries."
  },
  "1008": {
    "name": "repos/abstract-wiki/ci-images",
    "reason": "Publish images Abstract Wikipedia team uses for CI to docker-registry.wikimedia.org."
  },
  "906": {
    "name": "repos/releng/kokkuri",
    "reason": "Kokkuri now has its own image and needs to publish it."
  },
  "1033": {
    "name": "repos/releng/mathoid",
    "reason": "Temporary while dancy tests transition from libpipeline"
  }
}
